Third and Six
…
third_and_six |>
  filter(play_type %in% rush_plays) |>
  filter(yards_to_goal < 50) |> 
  group_by(pos_team) |>
  summarise(
    plays = n(),
    min = min(yards_gained),
    max = max(yards_gained),
    median = median(yards_gained),
    yards_gainedAvg = mean(yards_gained)
  ) |>
  arrange(desc(plays))

# A tibble: 239 × 6
   pos_team         plays   min   max median yards_gainedAvg
   <chr>            <int> <dbl> <dbl>  <dbl>           <dbl>
 1 Air Force           21    -3    18    5              5.57
 2 Army                20    -5    13    3.5            3.65
 3 Kent State          20   -16    38    5              7.35
 4 Navy                20    -6    15    3              3.8 
 5 Ole Miss            17    -3    14    3              4.35
 6 Florida State       16    -3    31    5              6.12
 7 Georgia Southern    16    -5    19    2.5            3.38
 8 Oklahoma State      16    -5    18    3              3.69
 9 Kennesaw State      15    -2    16    3              4.8 
10 Bowling Green       14   -10     9    2.5            1.79
# ℹ 229 more rows
…
I took out the yards gained and the averages because for some reason my list was organizing by yards gained instead of plays.

Code

plays_third_and_six |>
  arrange(desc(plays)) |>
  top_n(10)|>
  select (pos_team, plays)

Selecting by plays

# A tibble: 21 × 2
   pos_team        plays
   <chr>           <int>
 1 Air Force          10
 2 Oklahoma State      9
 3 Troy                9
 4 Ole Miss            7
 5 San Diego State     7
 6 UAB                 7
 7 South Alabama       6
 8 Arizona State       5
 9 Arkansas            5
10 Colorado            5
# ℹ 11 more rows
…
